Seamless Access to World Bank World Development Indicators (WDI) • wbwdi
…
pak::pak("tidy-intelligence/r-wbwdi")

Usage

The main function wdi_get() provides an interface to download multiple WDI series for multiple entities and specific date ranges.

library(wbwdi)

wdi_get(
  entities = c("MEX", "CAN", "USA"),
  indicators = c("NY.GDP.PCAP.KD", "SP.POP.TOTL"),
  start_year = 2020,
  end_year = 2024
)
#> # A tibble: 30 × 4
#>    entity_id indicator_id    year  value
#>    <chr>     <chr>          <int>  <dbl>
#>  1 CAN       NY.GDP.PCAP.KD  2020 42366.
#>  2 MEX       NY.GDP.PCAP.KD  2020  9235.
#>  3 USA       NY.GDP.PCAP.KD  2020 59484.
#>  4 CAN       NY.GDP.PCAP.KD  2021 44639.
#>  5 MEX       NY.GDP.PCAP.KD  2021  9728.
#>  6 USA       NY.GDP.PCAP.KD  2021 62987.
#>  7 CAN       NY.GDP.PCAP.KD  2022 45678.
#>  8 MEX       NY.GDP.PCAP.KD  2022 10013.
#>  9 USA       NY.GDP.PCAP.KD  2022 64198.
#> 10 CAN       NY.GDP.PCAP.KD  2023 45048.
#> # ℹ 20 more rows

You can also download these indicators for all entities and available dates:

wdi_get(
  entities = "all",
  indicators = c("NY.GDP.PCAP.KD", "SP.POP.TOTL")
)
#> # A tibble: 34,580 × 4
#>    entity_id indicator_id    year value
#>    <chr>     <chr>          <int> <dbl>
#>  1 AFE       NY.GDP.PCAP.KD  1960 1172.
#>  2 AFW       NY.GDP.PCAP.KD  1960 1122.
#>  3 ARB       NY.GDP.PCAP.KD  1960   NA 
#>  4 CSS       NY.GDP.PCAP.KD  1960 4377.
#>  5 CEB       NY.GDP.PCAP.KD  1960   NA 
#>  6 EAR       NY.GDP.PCAP.KD  1960 1062.
#>  7 EAS       NY.GDP.PCAP.KD  1960 1146.
#>  8 EAP       NY.GDP.PCAP.KD  1960  325.
#>  9 TEA       NY.GDP.PCAP.KD  1960  330.
#> 10 EMU       NY.GDP.PCAP.KD  1960 9943.
#> # ℹ 34,570 more rows

Some indicators are also available on a monthly basis, e.g.:

wdi_get(
  entities = "AUT",
  indicators = "DPANUSSPB",
  start_year = 2012,
  end_year = 2015,
  frequency = "month"
)
#> # A tibble: 48 × 5
#>    entity_id indicator_id  year month value
#>    <chr>     <chr>        <int> <int> <dbl>
#>  1 AUT       DPANUSSPB     2012     1 0.775
#>  2 AUT       DPANUSSPB     2012     2 0.755
#>  3 AUT       DPANUSSPB     2012     3 0.757
#>  4 AUT       DPANUSSPB     2012     4 0.760
#>  5 AUT       DPANUSSPB     2012     5 0.782
#>  6 AUT       DPANUSSPB     2012     6 0.797
#>  7 AUT       DPANUSSPB     2012     7 0.814
#>  8 AUT       DPANUSSPB     2012     8 0.806
#>  9 AUT       DPANUSSPB     2012     9 0.777
#> 10 AUT       DPANUSSPB     2012    10 0.771
#> # ℹ 38 more rows
…
You can get a list of all indicators supported by the WDI API via:

wdi_get_indicators()
#> # A tibble: 29,244 × 7
#>    indicator_id         indicator_name         source_id source_name source_note
#>    <chr>                <chr>                      <int> <chr>       <chr>      
#>  1 1.0.HCount.1.90usd   Poverty Headcount ($1…        37 LAC Equity… "The pover…
#>  2 1.0.HCount.2.5usd    Poverty Headcount ($2…        37 LAC Equity… "The pover…
#>  3 1.0.HCount.Mid10to50 Middle Class ($10-50 …        37 LAC Equity… "The pover…
#>  4 1.0.HCount.Ofcl      Official Moderate Pov…        37 LAC Equity… "The pover…
#>  5 1.0.HCount.Poor4uds  Poverty Headcount ($4…        37 LAC Equity… "The pover…
#>  6 1.0.HCount.Vul4to10  Vulnerable ($4-10 a d…        37 LAC Equity… "The pover…
#>  7 1.0.PGap.1.90usd     Poverty Gap ($1.90 a …        37 LAC Equity… "The pover…
#>  8 1.0.PGap.2.5usd      Poverty Gap ($2.50 a …        37 LAC Equity… "The pover…
#>  9 1.0.PGap.Poor4uds    Poverty Gap ($4 a day)        37 LAC Equity… "The pover…
#> 10 1.0.PSev.1.90usd     Poverty Severity ($1.…        37 LAC Equity… "The pover…
#> # ℹ 29,234 more rows
#> # ℹ 2 more variables: source_organization <chr>, topics <list>

You can get a list of all supported entities via:

wdi_get_entities()
#> # A tibble: 296 × 19
#>    entity_id entity_iso2code entity_type capital_city     entity_name  region_id
#>    <chr>     <chr>           <chr>       <chr>            <chr>        <chr>    
#>  1 ABW       AW              country     Oranjestad       Aruba        LCN      
#>  2 AFE       ZH              aggregates  <NA>             Africa East… NA       
#>  3 AFG       AF              country     Kabul            Afghanistan  MEA      
#>  4 AFR       A9              aggregates  <NA>             Africa       NA       
#>  5 AFW       ZI              aggregates  <NA>             Africa West… NA       
#>  6 AGO       AO              country     Luanda           Angola       SSF      
#>  7 ALB       AL              country     Tirane           Albania      ECS      
#>  8 AND       AD              country     Andorra la Vella Andorra      ECS      
#>  9 ARB       1A              aggregates  <NA>             Arab World   NA       
#> 10 ARE       AE              country     Abu Dhabi        United Arab… MEA      
#> # ℹ 286 more rows
#> # ℹ 13 more variables: region_iso2code <chr>, region_name <chr>,
#> #   admin_region_id <chr>, admin_region_iso2code <chr>,
#> #   admin_region_name <chr>, income_level_id <chr>,
#> #   income_level_iso2code <chr>, income_level_name <chr>,
#> #   lending_type_id <chr>, lending_type_iso2code <chr>,
#> #   lending_type_name <chr>, longitude <dbl>, latitude <dbl>

You can also get the list of supported indicators and entities in another language, but note that not everything seems to be translated into other languages:

wdi_get_indicators(language = "es")
wdi_get_entities(language = "zh")

Check out the following function for a list of supported languages:

wdi_get_languages()
#> # A tibble: 23 × 3
#>    language_code language_name native_form     
#>    <chr>         <chr>         <chr>           
#>  1 en            English       English         
#>  2 es            Spanish       Español         
#>  3 fr            French        Français        
#>  4 ar            Arabic        عربي            
#>  5 zh            Chinese       中文            
#>  6 bg            Bulgarian     Български       
#>  7 de            German        Deutsch         
#>  8 hi            Hindi         हिंदी            
#>  9 id            Indonesian    Bahasa indonesia
#> 10 ja            Japanese      日本語          
#> # ℹ 13 more rows
…
wdi_get_regions()
wdi_get_sources()
wdi_get_topics()
wdi_get_lending_types()

If you want to search for specific keywords among indicators or other data sources, you can use the RStudio or Positron data explorer. Alternatively, this package comes with a helper function:

indicators <- wdi_get_indicators()
wdi_search(
  indicators,
  keywords = c("inequality", "gender"),
  columns = c("indicator_name")
)
#> # A tibble: 466 × 7
#>    indicator_id         indicator_name         source_id source_name source_note
#>    <chr>                <chr>                      <int> <chr>       <chr>      
#>  1 2.3_GIR.GPI          "Gender parity index …        34 Global Par… "Ratio of …
#>  2 2.6_PCR.GPI          "Gender parity index …        34 Global Par… "Ratio of …
#>  3 BI.EMP.PWRK.PB.FE.ZS "Public sector employ…        64 Worldwide …  <NA>      
#>  4 BI.EMP.PWRK.PB.MA.ZS "Public sector employ…        64 Worldwide …  <NA>      
#>  5 BI.EMP.TOTL.PB.FE.ZS "Public sector employ…        64 Worldwide …  <NA>      
#>  6 BI.EMP.TOTL.PB.MA.ZS "Public sector employ…        64 Worldwide …  <NA>      
#>  7 BI.WAG.PREM.PB.FE    "Public sector wage p…        64 Worldwide …  <NA>      
#>  8 BI.WAG.PREM.PB.FM    "P-Value: Public sect…        64 Worldwide …  <NA>      
#>  9 BI.WAG.PREM.PB.FM.CA "P-Value: Gender wage…        64 Worldwide …  <NA>      
#> 10 BI.WAG.PREM.PB.FM.ED "P-Value: Gender wage…        64 Worldwide …  <NA>      
#> # ℹ 456 more rows
#> # ℹ 2 more variables: source_organization <chr>, topics <list>
…
