…
## Details

This function makes a request to the World Bank API to retrieve metadata
for all available indicators. It processes the response into a tidy
tibble format.

## Examples

``` r
# \donttest{
# Download all supported indicators in English
wdi_get_indicators()
#> # A tibble: 29,299 × 7
#>    indicator_id         indicator_name         source_id source_name source_note
#>    <chr>                <chr>                      <int> <chr>       <chr>      
#>  1 1.0.HCount.1.90usd   Poverty Headcount ($1…        37 LAC Equity… "The pover…
#>  2 1.0.HCount.2.5usd    Poverty Headcount ($2…        37 LAC Equity… "The pover…
#>  3 1.0.HCount.Mid10to50 Middle Class ($10-50 …        37 LAC Equity… "The pover…
#>  4 1.0.HCount.Ofcl      Official Moderate Pov…        37 LAC Equity… "The pover…
#>  5 1.0.HCount.Poor4uds  Poverty Headcount ($4…        37 LAC Equity… "The pover…
#>  6 1.0.HCount.Vul4to10  Vulnerable ($4-10 a d…        37 LAC Equity… "The pover…
#>  7 1.0.PGap.1.90usd     Poverty Gap ($1.90 a …        37 LAC Equity… "The pover…
#>  8 1.0.PGap.2.5usd      Poverty Gap ($2.50 a …        37 LAC Equity… "The pover…
#>  9 1.0.PGap.Poor4uds    Poverty Gap ($4 a day)        37 LAC Equity… "The pover…
#> 10 1.0.PSev.1.90usd     Poverty Severity ($1.…        37 LAC Equity… "The pover…
#> # ℹ 29,289 more rows
#> # ℹ 2 more variables: source_organization <chr>, topics <list>

# Download all supported indicators in Spanish
wdi_get_indicators(language = "es")
#> # A tibble: 29,299 × 7
#>    indicator_id         indicator_name         source_id source_name source_note
#>    <chr>                <chr>                      <int> <chr>       <chr>      
#>  1 1.0.HCount.1.90usd   "Tasa de Incidencia d…        37 ""          "Tasa de I…
#>  2 1.0.HCount.2.5usd    "Tasa de Incidencia d…        37 ""          "Tasa de I…
#>  3 1.0.HCount.Mid10to50 "Tasa de Incidencia d…        37 ""          "Tasa de I…
#>  4 1.0.HCount.Ofcl      "Tasa Oficial de la P…        37 ""          "Tasa de I…
#>  5 1.0.HCount.Poor4uds  "Tasa de Incidencia d…        37 ""          "Tasa de I…
#>  6 1.0.HCount.Vul4to10  "Tasa de incidencia d…        37 ""          "Tasa de I…
#>  7 1.0.PGap.1.90usd     "Brecha de Pobreza ($…        37 ""          "La Brecha…
#>  8 1.0.PGap.2.5usd      "Brecha de Pobreza ($…        37 ""          "La Brecha…
#>  9 1.0.PGap.Poor4uds    "Brecha de Pobreza ($…        37 ""          "La Brecha…
#> 10 1.0.PSev.1.90usd     "Severidad de la Pobr…        37 ""          "El índice…
#> # ℹ 29,289 more rows
#> # ℹ 2 more variables: source_organization <chr>, topics <list>
…
