…
The function supports downloading multiple indicators by sending
individual API requests for each indicator and then combining the
results into a single tidy data frame.

## Examples

``` r
# \donttest{
# Download single indicator for multiple entities
wdi_get(c("USA", "CAN", "GBR"), "NY.GDP.PCAP.KD")
#> # A tibble: 195 × 4
#>    entity_id indicator_id    year  value
#>    <chr>     <chr>          <int>  <dbl>
#>  1 CAN       NY.GDP.PCAP.KD  1960 15432.
#>  2 GBR       NY.GDP.PCAP.KD  1960 15136.
#>  3 USA       NY.GDP.PCAP.KD  1960 18854.
#>  4 CAN       NY.GDP.PCAP.KD  1961 15606.
#>  5 GBR       NY.GDP.PCAP.KD  1961 15427.
#>  6 USA       NY.GDP.PCAP.KD  1961 19019.
#>  7 CAN       NY.GDP.PCAP.KD  1962 16456.
#>  8 GBR       NY.GDP.PCAP.KD  1962 15465.
#>  9 USA       NY.GDP.PCAP.KD  1962 19877.
#> 10 CAN       NY.GDP.PCAP.KD  1963 17008.
#> # ℹ 185 more rows
…
# Download single indicator for monthly frequency
wdi_get("AUT", "DPANUSSPB",
        start_year = 2012, end_year = 2015, frequency = "month")
#> # A tibble: 48 × 5
#>    entity_id indicator_id  year month value
#>    <chr>     <chr>        <int> <int> <dbl>
#>  1 AUT       DPANUSSPB     2012     1 0.775
#>  2 AUT       DPANUSSPB     2012     2 0.755
#>  3 AUT       DPANUSSPB     2012     3 0.757
#>  4 AUT       DPANUSSPB     2012     4 0.760
#>  5 AUT       DPANUSSPB     2012     5 0.782
#>  6 AUT       DPANUSSPB     2012     6 0.797
#>  7 AUT       DPANUSSPB     2012     7 0.814
#>  8 AUT       DPANUSSPB     2012     8 0.806
#>  9 AUT       DPANUSSPB     2012     9 0.777
#> 10 AUT       DPANUSSPB     2012    10 0.771
#> # ℹ 38 more rows
…
# Download single indicator for all entities and disable progress bar
wdi_get("all", "NY.GDP.PCAP.KD", progress = FALSE)
#> # A tibble: 17,290 × 4
#>    entity_id indicator_id    year value
#>    <chr>     <chr>          <int> <dbl>
#>  1 AFE       NY.GDP.PCAP.KD  1960 1172.
#>  2 AFW       NY.GDP.PCAP.KD  1960 1122.
#>  3 ARB       NY.GDP.PCAP.KD  1960   NA 
#>  4 CSS       NY.GDP.PCAP.KD  1960 4377.
#>  5 CEB       NY.GDP.PCAP.KD  1960   NA 
#>  6 EAR       NY.GDP.PCAP.KD  1960 1062.
#>  7 EAS       NY.GDP.PCAP.KD  1960 1146.
#>  8 EAP       NY.GDP.PCAP.KD  1960  325.
#>  9 TEA       NY.GDP.PCAP.KD  1960  330.
#> 10 EMU       NY.GDP.PCAP.KD  1960 9943.
#> # ℹ 17,280 more rows

# Download multiple indicators for multiple entities
wdi_get(c("USA", "CAN", "GBR"), c("NY.GDP.PCAP.KD", "SP.POP.TOTL"))
#> # A tibble: 390 × 4
#>    entity_id indicator_id    year  value
#>    <chr>     <chr>          <int>  <dbl>
#>  1 CAN       NY.GDP.PCAP.KD  1960 15432.
#>  2 GBR       NY.GDP.PCAP.KD  1960 15136.
#>  3 USA       NY.GDP.PCAP.KD  1960 18854.
#>  4 CAN       NY.GDP.PCAP.KD  1961 15606.
#>  5 GBR       NY.GDP.PCAP.KD  1961 15427.
#>  6 USA       NY.GDP.PCAP.KD  1961 19019.
#>  7 CAN       NY.GDP.PCAP.KD  1962 16456.
#>  8 GBR       NY.GDP.PCAP.KD  1962 15465.
#>  9 USA       NY.GDP.PCAP.KD  1962 19877.
#> 10 CAN       NY.GDP.PCAP.KD  1963 17008.
#> # ℹ 380 more rows

# Download indicators for different sources
wdi_get("DEU", "SG.LAW.INDX", source = 2)
#> # A tibble: 65 × 4
#>    entity_id indicator_id  year value
#>    <chr>     <chr>        <int> <dbl>
#>  1 DEU       SG.LAW.INDX   1960    NA
#>  2 DEU       SG.LAW.INDX   1961    NA
#>  3 DEU       SG.LAW.INDX   1962    NA
#>  4 DEU       SG.LAW.INDX   1963    NA
#>  5 DEU       SG.LAW.INDX   1964    NA
#>  6 DEU       SG.LAW.INDX   1965    NA
#>  7 DEU       SG.LAW.INDX   1966    NA
#>  8 DEU       SG.LAW.INDX   1967    NA
#>  9 DEU       SG.LAW.INDX   1968    NA
#> 10 DEU       SG.LAW.INDX   1969    NA
#> # ℹ 55 more rows
wdi_get("DEU", "SG.LAW.INDX", source = 14)
#> # A tibble: 65 × 4
#>    entity_id indicator_id  year value
#>    <chr>     <chr>        <int> <dbl>
#>  1 DEU       SG.LAW.INDX   1960    NA
#>  2 DEU       SG.LAW.INDX   1961    NA
#>  3 DEU       SG.LAW.INDX   1962    NA
#>  4 DEU       SG.LAW.INDX   1963    NA
#>  5 DEU       SG.LAW.INDX   1964    NA
#>  6 DEU       SG.LAW.INDX   1965    NA
#>  7 DEU       SG.LAW.INDX   1966    NA
#>  8 DEU       SG.LAW.INDX   1967    NA
#>  9 DEU       SG.LAW.INDX   1968    NA
#> 10 DEU       SG.LAW.INDX   1969    NA
#> # ℹ 55 more rows

# Download indicators in wide format
wdi_get(c("USA", "CAN", "GBR"), c("NY.GDP.PCAP.KD"),
        format = "wide")
#> # A tibble: 195 × 3
#>    entity_id  year NY.GDP.PCAP.KD
#>    <chr>     <int>          <dbl>
#>  1 CAN        1960         15432.
#>  2 GBR        1960         15136.
#>  3 USA        1960         18854.
#>  4 CAN        1961         15606.
#>  5 GBR        1961         15427.
#>  6 USA        1961         19019.
#>  7 CAN        1962         16456.
#>  8 GBR        1962         15465.
#>  9 USA        1962         19877.
#> 10 CAN        1963         17008.
#> # ℹ 185 more rows
wdi_get(c("USA", "CAN", "GBR"), c("NY.GDP.PCAP.KD", "SP.POP.TOTL"),
        format = "wide")
#> # A tibble: 195 × 4
#>    entity_id  year NY.GDP.PCAP.KD SP.POP.TOTL
#>    <chr>     <int>          <dbl>       <dbl>
#>  1 CAN        1960         15432.    17909356
#>  2 GBR        1960         15136.    52400000
#>  3 USA        1960         18854.   180671000
#>  4 CAN        1961         15606.    18271000
#>  5 GBR        1961         15427.    52800000
#>  6 USA        1961         19019.   183691000
#>  7 CAN        1962         16456.    18614000
#>  8 GBR        1962         15465.    53250000
#>  9 USA        1962         19877.   186538000
#> 10 CAN        1963         17008.    18964000
#> # ℹ 185 more rows
…
